('/data/data/com.termux/files/home/Projects/Qordle/build/qrdl/qrdl.pkg',
 {'BINARY': True,
  'DATA': True,
  'EXECUTABLE': True,
  'EXTENSION': True,
  'PYMODULE': True,
  'PYSOURCE': True,
  'PYZ': False,
  'SPLASH': True},
 [('PYZ-00.pyz',
   '/data/data/com.termux/files/home/Projects/Qordle/build/qrdl/PYZ-00.pyz',
   'PYZ'),
  ('lib-dynload/_struct.cpython-311.so',
   '/data/data/com.termux/files/usr/lib/python3.11/lib-dynload/_struct.cpython-311.so',
   'EXTENSION'),
  ('lib-dynload/zlib.cpython-311.so',
   '/data/data/com.termux/files/usr/lib/python3.11/lib-dynload/zlib.cpython-311.so',
   'EXTENSION'),
  ('struct',
   '/data/data/com.termux/files/home/Projects/Qordle/build/qrdl/localpycs/struct.pyc',
   'PYMODULE'),
  ('pyimod01_archive',
   '/data/data/com.termux/files/home/Projects/Qordle/build/qrdl/localpycs/pyimod01_archive.pyc',
   'PYMODULE'),
  ('pyimod02_importers',
   '/data/data/com.termux/files/home/Projects/Qordle/build/qrdl/localpycs/pyimod02_importers.pyc',
   'PYMODULE'),
  ('pyimod03_ctypes',
   '/data/data/com.termux/files/home/Projects/Qordle/build/qrdl/localpycs/pyimod03_ctypes.pyc',
   'PYMODULE'),
  ('pyiboot01_bootstrap',
   '/data/data/com.termux/files/usr/lib/python3.11/site-packages/PyInstaller/loader/pyiboot01_bootstrap.py',
   'PYSOURCE'),
  ('pyi_rth_inspect',
   '/data/data/com.termux/files/usr/lib/python3.11/site-packages/PyInstaller/hooks/rthooks/pyi_rth_inspect.py',
   'PYSOURCE'),
  ('pyi_rth_pkgutil',
   '/data/data/com.termux/files/usr/lib/python3.11/site-packages/PyInstaller/hooks/rthooks/pyi_rth_pkgutil.py',
   'PYSOURCE'),
  ('pyi_rth_multiprocessing',
   '/data/data/com.termux/files/usr/lib/python3.11/site-packages/PyInstaller/hooks/rthooks/pyi_rth_multiprocessing.py',
   'PYSOURCE'),
  ('pyi_rth_setuptools',
   '/data/data/com.termux/files/usr/lib/python3.11/site-packages/PyInstaller/hooks/rthooks/pyi_rth_setuptools.py',
   'PYSOURCE'),
  ('pyi_rth_pkgres',
   '/data/data/com.termux/files/usr/lib/python3.11/site-packages/PyInstaller/hooks/rthooks/pyi_rth_pkgres.py',
   'PYSOURCE'),
  ('qrdl',
   '/data/data/com.termux/files/home/Projects/Qordle/qrdl.py',
   'PYSOURCE'),
  ('lib-dynload/_typing.cpython-311.so',
   '/data/data/com.termux/files/usr/lib/python3.11/lib-dynload/_typing.cpython-311.so',
   'EXTENSION'),
  ('lib-dynload/_ctypes.cpython-311.so',
   '/data/data/com.termux/files/usr/lib/python3.11/lib-dynload/_ctypes.cpython-311.so',
   'EXTENSION'),
  ('lib-dynload/grp.cpython-311.so',
   '/data/data/com.termux/files/usr/lib/python3.11/lib-dynload/grp.cpython-311.so',
   'EXTENSION'),
  ('lib-dynload/math.cpython-311.so',
   '/data/data/com.termux/files/usr/lib/python3.11/lib-dynload/math.cpython-311.so',
   'EXTENSION'),
  ('lib-dynload/select.cpython-311.so',
   '/data/data/com.termux/files/usr/lib/python3.11/lib-dynload/select.cpython-311.so',
   'EXTENSION'),
  ('lib-dynload/_posixsubprocess.cpython-311.so',
   '/data/data/com.termux/files/usr/lib/python3.11/lib-dynload/_posixsubprocess.cpython-311.so',
   'EXTENSION'),
  ('lib-dynload/fcntl.cpython-311.so',
   '/data/data/com.termux/files/usr/lib/python3.11/lib-dynload/fcntl.cpython-311.so',
   'EXTENSION'),
  ('lib-dynload/_pickle.cpython-311.so',
   '/data/data/com.termux/files/usr/lib/python3.11/lib-dynload/_pickle.cpython-311.so',
   'EXTENSION'),
  ('lib-dynload/binascii.cpython-311.so',
   '/data/data/com.termux/files/usr/lib/python3.11/lib-dynload/binascii.cpython-311.so',
   'EXTENSION'),
  ('lib-dynload/resource.cpython-311.so',
   '/data/data/com.termux/files/usr/lib/python3.11/lib-dynload/resource.cpython-311.so',
   'EXTENSION'),
  ('lib-dynload/_lzma.cpython-311.so',
   '/data/data/com.termux/files/usr/lib/python3.11/lib-dynload/_lzma.cpython-311.so',
   'EXTENSION'),
  ('lib-dynload/_bz2.cpython-311.so',
   '/data/data/com.termux/files/usr/lib/python3.11/lib-dynload/_bz2.cpython-311.so',
   'EXTENSION'),
  ('lib-dynload/_datetime.cpython-311.so',
   '/data/data/com.termux/files/usr/lib/python3.11/lib-dynload/_datetime.cpython-311.so',
   'EXTENSION'),
  ('lib-dynload/array.cpython-311.so',
   '/data/data/com.termux/files/usr/lib/python3.11/lib-dynload/array.cpython-311.so',
   'EXTENSION'),
  ('lib-dynload/_socket.cpython-311.so',
   '/data/data/com.termux/files/usr/lib/python3.11/lib-dynload/_socket.cpython-311.so',
   'EXTENSION'),
  ('lib-dynload/_queue.cpython-311.so',
   '/data/data/com.termux/files/usr/lib/python3.11/lib-dynload/_queue.cpython-311.so',
   'EXTENSION'),
  ('lib-dynload/_csv.cpython-311.so',
   '/data/data/com.termux/files/usr/lib/python3.11/lib-dynload/_csv.cpython-311.so',
   'EXTENSION'),
  ('lib-dynload/_opcode.cpython-311.so',
   '/data/data/com.termux/files/usr/lib/python3.11/lib-dynload/_opcode.cpython-311.so',
   'EXTENSION'),
  ('lib-dynload/pyexpat.cpython-311.so',
   '/data/data/com.termux/files/usr/lib/python3.11/lib-dynload/pyexpat.cpython-311.so',
   'EXTENSION'),
  ('lib-dynload/_hashlib.cpython-311.so',
   '/data/data/com.termux/files/usr/lib/python3.11/lib-dynload/_hashlib.cpython-311.so',
   'EXTENSION'),
  ('lib-dynload/_sha3.cpython-311.so',
   '/data/data/com.termux/files/usr/lib/python3.11/lib-dynload/_sha3.cpython-311.so',
   'EXTENSION'),
  ('lib-dynload/_blake2.cpython-311.so',
   '/data/data/com.termux/files/usr/lib/python3.11/lib-dynload/_blake2.cpython-311.so',
   'EXTENSION'),
  ('lib-dynload/_sha512.cpython-311.so',
   '/data/data/com.termux/files/usr/lib/python3.11/lib-dynload/_sha512.cpython-311.so',
   'EXTENSION'),
  ('lib-dynload/_sha256.cpython-311.so',
   '/data/data/com.termux/files/usr/lib/python3.11/lib-dynload/_sha256.cpython-311.so',
   'EXTENSION'),
  ('lib-dynload/_md5.cpython-311.so',
   '/data/data/com.termux/files/usr/lib/python3.11/lib-dynload/_md5.cpython-311.so',
   'EXTENSION'),
  ('lib-dynload/_sha1.cpython-311.so',
   '/data/data/com.termux/files/usr/lib/python3.11/lib-dynload/_sha1.cpython-311.so',
   'EXTENSION'),
  ('lib-dynload/termios.cpython-311.so',
   '/data/data/com.termux/files/usr/lib/python3.11/lib-dynload/termios.cpython-311.so',
   'EXTENSION'),
  ('lib-dynload/readline.cpython-311.so',
   '/data/data/com.termux/files/usr/lib/python3.11/lib-dynload/readline.cpython-311.so',
   'EXTENSION'),
  ('lib-dynload/_ssl.cpython-311.so',
   '/data/data/com.termux/files/usr/lib/python3.11/lib-dynload/_ssl.cpython-311.so',
   'EXTENSION'),
  ('lib-dynload/mmap.cpython-311.so',
   '/data/data/com.termux/files/usr/lib/python3.11/lib-dynload/mmap.cpython-311.so',
   'EXTENSION'),
  ('lib-dynload/_bisect.cpython-311.so',
   '/data/data/com.termux/files/usr/lib/python3.11/lib-dynload/_bisect.cpython-311.so',
   'EXTENSION'),
  ('lib-dynload/_posixshmem.cpython-311.so',
   '/data/data/com.termux/files/usr/lib/python3.11/lib-dynload/_posixshmem.cpython-311.so',
   'EXTENSION'),
  ('lib-dynload/_multiprocessing.cpython-311.so',
   '/data/data/com.termux/files/usr/lib/python3.11/lib-dynload/_multiprocessing.cpython-311.so',
   'EXTENSION'),
  ('lib-dynload/_contextvars.cpython-311.so',
   '/data/data/com.termux/files/usr/lib/python3.11/lib-dynload/_contextvars.cpython-311.so',
   'EXTENSION'),
  ('lib-dynload/_decimal.cpython-311.so',
   '/data/data/com.termux/files/usr/lib/python3.11/lib-dynload/_decimal.cpython-311.so',
   'EXTENSION'),
  ('lib-dynload/_asyncio.cpython-311.so',
   '/data/data/com.termux/files/usr/lib/python3.11/lib-dynload/_asyncio.cpython-311.so',
   'EXTENSION'),
  ('lib-dynload/syslog.cpython-311.so',
   '/data/data/com.termux/files/usr/lib/python3.11/lib-dynload/syslog.cpython-311.so',
   'EXTENSION'),
  ('lib-dynload/_json.cpython-311.so',
   '/data/data/com.termux/files/usr/lib/python3.11/lib-dynload/_json.cpython-311.so',
   'EXTENSION'),
  ('lib-dynload/unicodedata.cpython-311.so',
   '/data/data/com.termux/files/usr/lib/python3.11/lib-dynload/unicodedata.cpython-311.so',
   'EXTENSION'),
  ('lib-dynload/_multibytecodec.cpython-311.so',
   '/data/data/com.termux/files/usr/lib/python3.11/lib-dynload/_multibytecodec.cpython-311.so',
   'EXTENSION'),
  ('lib-dynload/_codecs_jp.cpython-311.so',
   '/data/data/com.termux/files/usr/lib/python3.11/lib-dynload/_codecs_jp.cpython-311.so',
   'EXTENSION'),
  ('lib-dynload/_codecs_kr.cpython-311.so',
   '/data/data/com.termux/files/usr/lib/python3.11/lib-dynload/_codecs_kr.cpython-311.so',
   'EXTENSION'),
  ('lib-dynload/_codecs_iso2022.cpython-311.so',
   '/data/data/com.termux/files/usr/lib/python3.11/lib-dynload/_codecs_iso2022.cpython-311.so',
   'EXTENSION'),
  ('lib-dynload/_codecs_cn.cpython-311.so',
   '/data/data/com.termux/files/usr/lib/python3.11/lib-dynload/_codecs_cn.cpython-311.so',
   'EXTENSION'),
  ('lib-dynload/_codecs_tw.cpython-311.so',
   '/data/data/com.termux/files/usr/lib/python3.11/lib-dynload/_codecs_tw.cpython-311.so',
   'EXTENSION'),
  ('lib-dynload/_codecs_hk.cpython-311.so',
   '/data/data/com.termux/files/usr/lib/python3.11/lib-dynload/_codecs_hk.cpython-311.so',
   'EXTENSION'),
  ('lib-dynload/_heapq.cpython-311.so',
   '/data/data/com.termux/files/usr/lib/python3.11/lib-dynload/_heapq.cpython-311.so',
   'EXTENSION'),
  ('PIL/_imagingtk.cpython-311.so',
   '/data/data/com.termux/files/usr/lib/python3.11/site-packages/PIL/_imagingtk.cpython-311.so',
   'EXTENSION'),
  ('_cffi_backend.cpython-311.so',
   '/data/data/com.termux/files/usr/lib/python3.11/site-packages/_cffi_backend.cpython-311.so',
   'EXTENSION'),
  ('PIL/_imaging.cpython-311.so',
   '/data/data/com.termux/files/usr/lib/python3.11/site-packages/PIL/_imaging.cpython-311.so',
   'EXTENSION'),
  ('lib-dynload/_statistics.cpython-311.so',
   '/data/data/com.termux/files/usr/lib/python3.11/lib-dynload/_statistics.cpython-311.so',
   'EXTENSION'),
  ('lib-dynload/_random.cpython-311.so',
   '/data/data/com.termux/files/usr/lib/python3.11/lib-dynload/_random.cpython-311.so',
   'EXTENSION'),
  ('libpython3.11.so.1.0',
   '/data/data/com.termux/files/usr/lib/libpython3.11.so.1.0',
   'BINARY'),
  ('wordlist.txt',
   '/data/data/com.termux/files/home/Projects/Qordle/wordlist.txt',
   'DATA'),
  ('base_library.zip',
   '/data/data/com.termux/files/home/Projects/Qordle/build/qrdl/base_library.zip',
   'DATA'),
  ('wheel-0.40.0.dist-info/INSTALLER',
   '/data/data/com.termux/files/usr/lib/python3.11/site-packages/wheel-0.40.0.dist-info/INSTALLER',
   'DATA'),
  ('wheel-0.40.0.dist-info/WHEEL',
   '/data/data/com.termux/files/usr/lib/python3.11/site-packages/wheel-0.40.0.dist-info/WHEEL',
   'DATA'),
  ('wheel-0.40.0.dist-info/entry_points.txt',
   '/data/data/com.termux/files/usr/lib/python3.11/site-packages/wheel-0.40.0.dist-info/entry_points.txt',
   'DATA'),
  ('wheel-0.40.0.dist-info/REQUESTED',
   '/data/data/com.termux/files/usr/lib/python3.11/site-packages/wheel-0.40.0.dist-info/REQUESTED',
   'DATA'),
  ('wheel-0.40.0.dist-info/RECORD',
   '/data/data/com.termux/files/usr/lib/python3.11/site-packages/wheel-0.40.0.dist-info/RECORD',
   'DATA'),
  ('wheel-0.40.0.dist-info/LICENSE.txt',
   '/data/data/com.termux/files/usr/lib/python3.11/site-packages/wheel-0.40.0.dist-info/LICENSE.txt',
   'DATA'),
  ('wheel-0.40.0.dist-info/METADATA',
   '/data/data/com.termux/files/usr/lib/python3.11/site-packages/wheel-0.40.0.dist-info/METADATA',
   'DATA')],
 False,
 False,
 False,
 [],
 None,
 None,
 None)
